{
  "dateOfBirth": "DOB",
  "division": "DIVISION",
  "emAmount": "EM",
  "firstName": "GIVENNAME",
  "lastName": "SURNAME",
  "lnAmount": "LN",
  "payDate": "PAY_DATE",
  "planId": "PLAN_ID",
  "preTaxAmount": "PT",
  "psAmount": "PS",
  "qcAmount": "QC",
  "sfAmount": "SF",
  "ssn": "Social Security Number",
  "workingHours": "PERIOD_HOURS"
}
